PSY 503: Foundations of Statistics in Psychological Science
…
    - Normality (each group should be approximately normal distributed)
    
    - Homogeneity: Equal variances between groups
---
# Independent: Data Screening

- Missingness

```r
longdata %>%
  drop_na()
```

```
## # A tibble: 24 × 2
##    Cloak    Mischief
##    <chr>       <dbl>
##  1 No Cloak        3
##  2 No Cloak        1
##  3 No Cloak        5
##  4 No Cloak        4
##  5 No Cloak        6
##  6 No Cloak        4
##  7 No Cloak        6
##  8 No Cloak        2
##  9 No Cloak        0
## 10 No Cloak        5
## # … with 14 more rows
## # ℹ Use `print(n = ...)` to see more rows
```
…
